[gd_scene load_steps=2 format=3 uid="uid://cneyfyh8umfd6"]

[ext_resource type="Script" uid="uid://chbd0oty5waat" path="res://common/state_machine/state_machine.gd" id="1_rk15q"]

[node name="StateMachine" type="Node3D"]
script = ExtResource("1_rk15q")
